{
  "classifier-mlp": {
    "accuracy": 0.9922937051,
    "f1-score": [
      0.9908355795,
      0.991914525,
      0.9919471947,
      0.9953917051,
      0.9925634296
    ],
    "params": {
      "ugv_name": "husky"
    },
    "precision": [
      0.9967462039,
      0.994211288,
      0.9894653674,
      0.9990749306,
      0.9891020052
    ],
    "recall": [
      0.9849946409,
      0.9896283492,
      0.9944415034,
      0.9917355372,
      0.9960491659
    ],
    "terrains": [
      "asphalt",
      "flooring",
      "ice",
      "sandy loam",
      "snow"
    ]
  },
  "classifier-mlp-05c-12f": {
    "accuracy": 0.8573036627,
    "f1-score": [
      0.7326507395,
      0.8919851014,
      0.9025319902,
      0.7626186907,
      0.8204047218
    ],
    "params": {
      "ugv_name": "husky"
    },
    "precision": [
      0.7825030377,
      0.8568778161,
      0.9185369909,
      0.8221982759,
      0.8054635762
    ],
    "recall": [
      0.6887700535,
      0.9300920598,
      0.887075194,
      0.7110904007,
      0.8359106529
    ],
    "terrains": [
      "asphalt",
      "flooring",
      "ice",
      "sandy loam",
      "snow"
    ]
  },
  "classifier-mlp-05c-18f": {
    "accuracy": 0.9832885964,
    "cross-val": {
      "asphalt": 0.5252732979759714,
      "flooring": 0.9314860915683516,
      "ice": 0.7914276436843815,
      "sandy loam": 0.8248538644728296,
      "snow": 0.864905823771379
    },
    "f1-score": [
      0.979638009,
      0.977327137,
      0.9823698237,
      0.9933774834,
      0.9904126719
    ],
    "params": {
      "ugv_name": "husky"
    },
    "precision": [
      0.9840909091,
      0.9609526447,
      0.9939159292,
      0.9933774834,
      0.9962264151
    ],
    "recall": [
      0.9752252252,
      0.994269341,
      0.9710888949,
      0.9933774834,
      0.9846663904
    ],
    "terrains": [
      "asphalt",
      "flooring",
      "ice",
      "sandy loam",
      "snow"
    ]
  },
  "classifier-rf": {
    "accuracy": 0.8622391549,
    "f1-score": [
      0.7535135135,
      0.904475043,
      0.912699477,
      0.7519011407,
      0.8118769883
    ],
    "params": {
      "bootstrap": true,
      "ccp_alpha": 0,
      "class_weight": null,
      "criterion": "gini",
      "max_depth": null,
      "max_features": "sqrt",
      "max_leaf_nodes": null,
      "max_samples": null,
      "min_impurity_decrease": 0,
      "min_samples_leaf": 1,
      "min_samples_split": 2,
      "min_weight_fraction_leaf": 0,
      "n_estimators": 100,
      "n_jobs": null,
      "oob_score": false,
      "random_state": null,
      "ugv_name": "husky",
      "verbose": 0,
      "warm_start": false
    },
    "precision": [
      0.7840269966,
      0.8980347479,
      0.9123324397,
      0.7739726027,
      0.7984981227
    ],
    "recall": [
      0.7252861602,
      0.9110083791,
      0.9130668098,
      0.7310536044,
      0.8257118205
    ],
    "terrains": [
      "asphalt",
      "flooring",
      "ice",
      "sandy loam",
      "snow"
    ]
  },
  "classifier-rf-05c-02f": {
    "accuracy": 0.6570443774,
    "cross-val": {
      "asphalt": 0.5811072813442482,
      "flooring": 0.6174062903920724,
      "ice": 0.6292546316242998,
      "sandy loam": 0.5820766910814305,
      "snow": 0.37548470486859115
    },
    "f1-score": [
      0.5171270718,
      0.6885199376,
      0.7364206593,
      0.4907235622,
      0.6135204082
    ],
    "params": {
      "ugv_name": "husky"
    },
    "precision": [
      0.5240761478,
      0.6740761323,
      0.7527967258,
      0.4911792015,
      0.6086039646
    ],
    "recall": [
      0.5103598691,
      0.7035962877,
      0.7207419018,
      0.4902687674,
      0.618516931
    ],
    "terrains": [
      "asphalt",
      "flooring",
      "ice",
      "sandy loam",
      "snow"
    ]
  },
  "classifier-rf-05c-04f": {
    "accuracy": 0.8605939908,
    "f1-score": [
      0.7495798319,
      0.904440697,
      0.9105356898,
      0.7516401125,
      0.808984047
    ],
    "params": {
      "ugv_name": "husky"
    },
    "precision": [
      0.7707373272,
      0.8948832036,
      0.920498615,
      0.7901477833,
      0.7833333333
    ],
    "recall": [
      0.7295528899,
      0.9142045455,
      0.9007861209,
      0.7167113494,
      0.8363715278
    ],
    "terrains": [
      "asphalt",
      "flooring",
      "ice",
      "sandy loam",
      "snow"
    ]
  },
  "classifier-rf-05c-10f": {
    "accuracy": 0.9487401507,
    "cross-val": {
      "asphalt": 0.6545080636432514,
      "flooring": 0.846628422989501,
      "ice": 0.7698885160731681,
      "sandy loam": 0.7851266507902144,
      "snow": 0.6840225156960381
    },
    "f1-score": [
      0.8528708134,
      0.9561527581,
      0.9686701627,
      0.9462962963,
      0.9413742383
    ],
    "params": {
      "ugv_name": "husky"
    },
    "precision": [
      0.9106002554,
      0.9438704273,
      0.9641327623,
      0.9632422243,
      0.9380234506
    ],
    "recall": [
      0.8020247469,
      0.9687589567,
      0.9732504728,
      0.9299363057,
      0.944749051
    ],
    "terrains": [
      "asphalt",
      "flooring",
      "ice",
      "sandy loam",
      "snow"
    ]
  },
  "classifier-rf-05c-12f": {
    "accuracy": 0.9578318469,
    "f1-score": [
      0.8701594533,
      0.9609407812,
      0.9766247804,
      0.9644718143,
      0.953275016
    ],
    "params": {
      "ugv_name": "husky"
    },
    "precision": [
      0.9116945107,
      0.9464975179,
      0.9759654334,
      0.9723018147,
      0.956745182
    ],
    "recall": [
      0.8322440087,
      0.9758316747,
      0.9772850189,
      0.9567669173,
      0.949829932
    ],
    "terrains": [
      "asphalt",
      "flooring",
      "ice",
      "sandy loam",
      "snow"
    ]
  },
  "classifier-rf-05c-13f": {
    "accuracy": 0.9986145987,
    "f1-score": [
      0.9978791092,
      0.9985619787,
      0.9982238011,
      0.9981167608,
      0.9997923157
    ],
    "params": {
      "ugv_name": "husky"
    },
    "precision": [
      0.9989384289,
      0.9971280873,
      0.9991794311,
      0.9990574929,
      0.9995847176
    ],
    "recall": [
      0.9968220339,
      1.0,
      0.9972699973,
      0.9971777987,
      1.0
    ],
    "terrains": [
      "asphalt",
      "flooring",
      "ice",
      "sandy loam",
      "snow"
    ]
  },
  "classifier-rf-05c-15f": {
    "accuracy": 0.9984414235,
    "cross-val": {
      "asphalt": 0.7192336832990583,
      "flooring": 0.9318108020348522,
      "ice": 0.7837428293105314,
      "sandy loam": 0.8204156743883958,
      "snow": 0.7667243992206105
    },
    "f1-score": [
      0.9956474429,
      0.998423843,
      0.9987904851,
      0.999076639,
      0.998716303
    ],
    "params": {
      "ugv_name": "husky"
    },
    "precision": [
      1.0,
      0.9977090493,
      0.9986562752,
      0.9981549815,
      0.998716303
    ],
    "recall": [
      0.9913326111,
      0.9991396616,
      0.9989247312,
      1.0,
      0.998716303
    ],
    "terrains": [
      "asphalt",
      "flooring",
      "ice",
      "sandy loam",
      "snow"
    ]
  },
  "classifier-rf-05c-18f": {
    "accuracy": 0.9990475366,
    "f1-score": [
      0.9978021978,
      0.9992966662,
      0.9990343496,
      0.9986257444,
      0.9993666878
    ],
    "params": {
      "bootstrap": true,
      "ccp_alpha": 0,
      "class_weight": null,
      "criterion": "gini",
      "max_depth": null,
      "max_features": "sqrt",
      "max_leaf_nodes": null,
      "max_samples": null,
      "min_impurity_decrease": 0,
      "min_samples_leaf": 1,
      "min_samples_split": 2,
      "min_weight_fraction_leaf": 0,
      "n_estimators": 100,
      "n_jobs": null,
      "oob_score": false,
      "random_state": null,
      "ugv_name": "husky",
      "verbose": 0,
      "warm_start": false
    },
    "precision": [
      0.99889989,
      0.9988751406,
      0.9991721854,
      0.9990834097,
      0.9991557619
    ],
    "recall": [
      0.9967069155,
      0.9997185477,
      0.9988965517,
      0.9981684982,
      0.9995777027
    ],
    "terrains": [
      "asphalt",
      "flooring",
      "ice",
      "sandy loam",
      "snow"
    ]
  },
  "regressor-mlp": {
    "accuracy": 0.798424106,
    "f1-score": [
      0.6356736243,
      0.8317744341,
      0.8265693431,
      0.7945736434,
      0.7797403703
    ],
    "params": {
      "activation": "relu",
      "alpha": 0.0001,
      "batch_size": "auto",
      "beta_1": 0.9,
      "beta_2": 0.999,
      "early_stopping": false,
      "epsilon": 1e-08,
      "hidden_layer_sizes": [
        100
      ],
      "learning_rate": "constant",
      "learning_rate_init": 0.001,
      "max_fun": 15000,
      "max_iter": 750,
      "momentum": 0.9,
      "n_iter_no_change": 10,
      "nesterovs_momentum": true,
      "power_t": 0.5,
      "random_state": null,
      "shuffle": true,
      "solver": "adam",
      "tol": 0.0001,
      "validation_fraction": 0.1,
      "verbose": false,
      "warm_start": false
    },
    "precision": [
      0.5541770058,
      0.7913335053,
      0.9004452926,
      0.847983454,
      0.7789115646
    ],
    "recall": [
      0.745272525,
      0.8765714286,
      0.7638963842,
      0.7474931632,
      0.7805709416
    ],
    "terrains": [
      "asphalt",
      "flooring",
      "ice",
      "sandy loam",
      "snow"
    ]
  },
  "regressor-mlp-05c-12f": {
    "accuracy": 0.5837734869,
    "f1-score": [
      0.3987255348,
      0.6509779951,
      0.6949077491,
      0.4102564103,
      0.5289108023
    ],
    "params": {
      "activation": "relu",
      "alpha": 0.0001,
      "batch_size": "auto",
      "beta_1": 0.9,
      "beta_2": 0.999,
      "early_stopping": false,
      "epsilon": 1e-08,
      "hidden_layer_sizes": [
        100
      ],
      "learning_rate": "constant",
      "learning_rate_init": 0.001,
      "max_fun": 15000,
      "max_iter": 750,
      "momentum": 0.9,
      "n_iter_no_change": 10,
      "nesterovs_momentum": true,
      "power_t": 0.5,
      "random_state": null,
      "shuffle": true,
      "solver": "adam",
      "tol": 0.0001,
      "validation_fraction": 0.1,
      "verbose": false,
      "warm_start": false
    },
    "precision": [
      0.3437990581,
      0.707641196,
      0.7728168089,
      0.3141875307,
      0.5407882676
    ],
    "r2-score": {
      "asphalt": 0.9818651909359998,
      "flooring": 0.9770578864874158,
      "ice": 0.9776962387003731,
      "sandy loam": 0.9957023555633502,
      "snow": 0.9896010223612803
    },
    "recall": [
      0.474539545,
      0.6027164686,
      0.6312684366,
      0.5909510619,
      0.5175438596
    ],
    "terrains": [
      "asphalt",
      "flooring",
      "ice",
      "sandy loam",
      "snow"
    ]
  },
  "regressor-mlp-05c-18f": {
    "accuracy": 0.7982509308,
    "f1-score": [
      0.6549165121,
      0.8347151645,
      0.8248969982,
      0.7935891209,
      0.7689303537
    ],
    "params": {
      "activation": "relu",
      "alpha": 0.0001,
      "batch_size": "auto",
      "beta_1": 0.9,
      "beta_2": 0.999,
      "early_stopping": false,
      "epsilon": 1e-08,
      "hidden_layer_sizes": [
        100
      ],
      "learning_rate": "constant",
      "learning_rate_init": 0.001,
      "max_fun": 15000,
      "max_iter": 750,
      "momentum": 0.9,
      "n_iter_no_change": 10,
      "nesterovs_momentum": true,
      "power_t": 0.5,
      "random_state": null,
      "shuffle": true,
      "solver": "adam",
      "tol": 0.0001,
      "validation_fraction": 0.1,
      "verbose": false,
      "warm_start": false
    },
    "precision": [
      0.5767973856,
      0.7915292924,
      0.8932441045,
      0.8483904465,
      0.7768522578
    ],
    "r2-score": {
      "asphalt": 0.9820736894387397,
      "flooring": 0.9893877249582499,
      "ice": 0.9767327321524225,
      "sandy loam": 0.9963888453768593,
      "snow": 0.9885890199443634
    },
    "recall": [
      0.7575107296,
      0.8828854314,
      0.766265719,
      0.7454379562,
      0.7611683849
    ],
    "terrains": [
      "asphalt",
      "flooring",
      "ice",
      "sandy loam",
      "snow"
    ]
  },
  "regressor-rf": {
    "accuracy": 0.8317603256,
    "f1-score": [
      0.6965285554,
      0.8815220525,
      0.8655190963,
      0.7349128297,
      0.8023824718
    ],
    "params": {
      "bootstrap": true,
      "ccp_alpha": 0.0,
      "criterion": "squared_error",
      "max_depth": null,
      "max_features": 1.0,
      "max_leaf_nodes": null,
      "max_samples": null,
      "min_impurity_decrease": 0.0,
      "min_samples_leaf": 1,
      "min_samples_split": 2,
      "min_weight_fraction_leaf": 0.0,
      "n_estimators": 100,
      "n_jobs": null,
      "oob_score": false,
      "random_state": null,
      "verbose": false,
      "warm_start": false
    },
    "precision": [
      0.6865342163,
      0.8892119802,
      0.8720867209,
      0.7352415027,
      0.7871452421
    ],
    "recall": [
      0.7068181818,
      0.8739639897,
      0.859049653,
      0.7345844504,
      0.8182212581
    ],
    "terrains": [
      "asphalt",
      "flooring",
      "ice",
      "sandy loam",
      "snow"
    ]
  },
  "regressor-rf-05c-12f": {
    "accuracy": 0.7237856091,
    "f1-score": [
      0.5911885246,
      0.7981417653,
      0.7836083311,
      0.5215287857,
      0.6715881883
    ],
    "params": {
      "bootstrap": true,
      "ccp_alpha": 0.0,
      "criterion": "squared_error",
      "max_depth": null,
      "max_features": 1.0,
      "max_leaf_nodes": null,
      "max_samples": null,
      "min_impurity_decrease": 0.0,
      "min_samples_leaf": 1,
      "min_samples_split": 2,
      "min_weight_fraction_leaf": 0.0,
      "n_estimators": 100,
      "n_jobs": null,
      "oob_score": false,
      "random_state": null,
      "verbose": false,
      "warm_start": false
    },
    "precision": [
      0.551625239,
      0.8288204171,
      0.7850948509,
      0.5438950555,
      0.6450747413
    ],
    "r2-score": {
      "asphalt": 0.9334766408864957,
      "flooring": 0.9850599372810229,
      "ice": 0.9736695464142813,
      "sandy loam": 0.9763759263321555,
      "snow": 0.9740675915725435
    },
    "recall": [
      0.6368653422,
      0.7696531792,
      0.7821274298,
      0.500929368,
      0.7003745318
    ],
    "terrains": [
      "asphalt",
      "flooring",
      "ice",
      "sandy loam",
      "snow"
    ]
  },
  "regressor-rf-05c-15f": {
    "accuracy": 0.743354403,
    "f1-score": [
      0.6022665947,
      0.8130273871,
      0.7931174638,
      0.5933239304,
      0.6916900843
    ],
    "params": {
      "bootstrap": true,
      "ccp_alpha": 0.0,
      "criterion": "squared_error",
      "max_depth": null,
      "max_features": 1.0,
      "max_leaf_nodes": null,
      "max_samples": null,
      "min_impurity_decrease": 0.0,
      "min_samples_leaf": 1,
      "min_samples_split": 2,
      "min_weight_fraction_leaf": 0.0,
      "n_estimators": 100,
      "n_jobs": null,
      "oob_score": false,
      "random_state": null,
      "verbose": false,
      "warm_start": false
    },
    "precision": [
      0.6152149945,
      0.8226482924,
      0.8054485416,
      0.5891690009,
      0.6629472874
    ],
    "r2-score": {
      "asphalt": 0.9422219637547866,
      "flooring": 0.9813788042599875,
      "ice": 0.972853062929497,
      "sandy loam": 0.9774974306331582,
      "snow": 0.9778274301182147
    },
    "recall": [
      0.5898520085,
      0.8036289143,
      0.7811582599,
      0.5975378788,
      0.7230381872
    ],
    "terrains": [
      "asphalt",
      "flooring",
      "ice",
      "sandy loam",
      "snow"
    ]
  },
  "regressor-rf-05c-17f": {
    "accuracy": 0.7377262101,
    "f1-score": [
      0.5960193653,
      0.8139872316,
      0.7896019496,
      0.5667938931,
      0.678725591
    ],
    "params": {
      "bootstrap": true,
      "ccp_alpha": 0.0,
      "criterion": "squared_error",
      "max_depth": null,
      "max_features": 1.0,
      "max_leaf_nodes": null,
      "max_samples": null,
      "min_impurity_decrease": 0.0,
      "min_samples_leaf": 1,
      "min_samples_split": 2,
      "min_weight_fraction_leaf": 0.0,
      "n_estimators": 100,
      "n_jobs": null,
      "oob_score": false,
      "random_state": null,
      "verbose": false,
      "warm_start": false
    },
    "precision": [
      0.5899893504,
      0.8237885463,
      0.7908868999,
      0.6149068323,
      0.6469435737
    ],
    "r2-score": {
      "asphalt": 0.9107633812173807,
      "flooring": 0.9677848445771767,
      "ice": 0.9537515721320525,
      "sandy loam": 0.9780365345030334,
      "snow": 0.9717166219377067
    },
    "recall": [
      0.602173913,
      0.8044164038,
      0.7883211679,
      0.5256637168,
      0.7137916126
    ],
    "terrains": [
      "asphalt",
      "flooring",
      "ice",
      "sandy loam",
      "snow"
    ]
  },
  "regressor-rf-05c-18f": {
    "accuracy": 0.8274309464,
    "f1-score": [
      0.7191709845,
      0.8805361305,
      0.8697055264,
      0.7019102621,
      0.7868284229
    ],
    "params": {
      "bootstrap": true,
      "ccp_alpha": 0.0,
      "criterion": "squared_error",
      "max_depth": null,
      "max_features": 1.0,
      "max_leaf_nodes": null,
      "max_samples": null,
      "min_impurity_decrease": 0.0,
      "min_samples_leaf": 1,
      "min_samples_split": 2,
      "min_weight_fraction_leaf": 0.0,
      "n_estimators": 100,
      "n_jobs": null,
      "oob_score": false,
      "random_state": null,
      "verbose": false,
      "warm_start": false
    },
    "precision": [
      0.6967871486,
      0.8930260047,
      0.8709938055,
      0.7201458523,
      0.7698177194
    ],
    "r2-score": {
      "asphalt": 0.9755672325871793,
      "flooring": 0.9922518914139278,
      "ice": 0.9924056021421443,
      "sandy loam": 0.9953473117474586,
      "snow": 0.9902400148633338
    },
    "recall": [
      0.7430406852,
      0.8683908046,
      0.8684210526,
      0.6845753899,
      0.8046078866
    ],
    "terrains": [
      "asphalt",
      "flooring",
      "ice",
      "sandy loam",
      "snow"
    ]
  }
}